Primera pasada a variables de la Economía Popular
…
Tomamos como referencia este documento, donde se indican una serie de variables a ser consideradas. En este notebook se realiza un analisis exploratorio de datos de ellas.

Carga de datos

Para obtener los datos necesarios para el análisis, usamos el paquete de R que permite descargar datos de la EPH. Empezamos cargando el paquete, junto al paquete tidyverse, útil para realizar análisis de datos:

library(tidyverse,warn.conflicts = FALSE,quietly = TRUE)
library(eph,warn.conflicts = FALSE,quietly = TRUE)

La función base que nos permite descargar información de la encuesta es get_microdata. En caso de querer explorar mejor las características del paquete, se sugiere revisar este vignette. Tomemos los datos del 3er trimestre de 2010:

individual_10.3 <-get_microdata(year = 2010, trimester = 3,type='individual') # Vamos a llamar a los datasets siguiendo la notación type_year.trimester, como se ve acá.
individual_10.3

## # A tibble: 59,935 × 177
##    CODUSU NRO_HOGAR COMPONENTE   H15  ANO4 TRIMESTRE REGION MAS_500 AGLOMERADO
##    <chr>      <dbl>      <dbl> <dbl> <dbl>     <dbl>  <dbl> <chr>        <dbl>
##  1 301358         1          1     1  2010         3     43 S                2
##  2 304669         1          1     1  2010         3     43 S                2
##  3 304669         1          2     1  2010         3     43 S                2
##  4 304669         1          3     1  2010         3     43 S                2
##  5 302366         1          1     1  2010         3     43 S                2
##  6 129661         1          1     1  2010         3     43 S                2
##  7 132464         1          1     1  2010         3     43 S                2
##  8 132464         1          2     1  2010         3     43 S                2
##  9 132464         1          3     0  2010         3     43 S                2
## 10 235738         1          1     1  2010         3     43 S                2
## # … with 59,925 more rows, and 168 more variables: PONDERA <dbl>, CH03 <dbl>,
## #   CH04 <dbl>, CH06 <dbl>, CH07 <dbl>, CH08 <dbl>, CH09 <dbl>, CH10 <dbl>,
## #   CH11 <dbl>, CH12 <dbl>, CH13 <dbl>, CH14 <chr>, CH15 <dbl>, CH15_COD <int>,
## #   CH16 <dbl>, CH16_COD <int>, NIVEL_ED <dbl>, ESTADO <dbl>, CAT_OCUP <dbl>,
## #   CAT_INAC <dbl>, PP02C1 <dbl>, PP02C2 <dbl>, PP02C3 <dbl>, PP02C4 <dbl>,
## #   PP02C5 <dbl>, PP02C6 <dbl>, PP02C7 <dbl>, PP02C8 <dbl>, PP02E <dbl>,
## #   PP02H <dbl>, PP02I <dbl>, PP03C <dbl>, PP03D <dbl>, PP3E_TOT <dbl>, …
…
rm(df) # Borro lo que sobra

Veamos el dataset obtenido:

individual_03to22

## # A tibble: 3,890,166 × 13
##     ANO4 TRIMESTRE REGION AGLOMERADO CODUSU   NRO_HOGAR  CH03  CH04 CH05  ESTADO
##    <dbl>     <dbl>  <dbl>      <dbl> <chr>        <dbl> <dbl> <dbl> <chr>  <dbl>
##  1  2021         4     44         17 TQRMNOP…         1     3     1 14/0…      3
##  2  2021         4      1         33 TQRMNOQ…         1     1     1 07/0…      3
##  3  2021         4      1         33 TQRMNOQ…         1     2     2 05/0…      3
##  4  2021         4      1         33 TQRMNOQ…         1     1     1 01/0…      1
##  5  2021         4     43          6 TQRMNOP…         1     2     2 01/0…      3
##  6  2021         4     40         23 TQRMNOQ…         1     1     2 19/0…      3
##  7  2021         4     40         23 TQRMNOQ…         1     3     1 27/0…      1
##  8  2021         4     44         17 TQRMNOP…         1     1     2 01/0…      3
##  9  2021         4     44         17 TQRMNOP…         1     3     2 01/0…      1
## 10  2021         4     44         17 TQRMNOP…         1     5     1 01/0…      4
## # … with 3,890,156 more rows, and 3 more variables: CAT_OCUP <dbl>,
## #   CAT_INAC <dbl>, PP04D_COD <chr>
…
